YOUR PROJECT A TITLE
…
Remember that you will need to do five things in the proposal.

a sentence or two (perhaps accompanied by a small table of R results) specifying the 4-6 states you chose, and the number of counties you are studying in total and within each state. In an additional sentence or two, provide some motivation for why you chose those states.

Proposal Requirement 2

A list of the five variables (including their original raw names and your renamed versions) you are studying, with a clear indication of the cutpoints you chose to create the binary categories out of variable 4 and the multiple categories out of variable 5. Think of this as an early version of what will eventually become your codebook. For each variable, provide a sentence describing your motivation for why this variable was interesting to you, and also please specify which of your quantitative variables will serve as your outcome.

Proposal Requirement 3

Print the tibble, so we can verify that it is, in fact, a tibble, that prints the first 10 rows.

chr_2019

# A tibble: 31 x 10
   fipscode state county         life_expectancy freq_mental_distr~ hsgraduation
   <chr>    <fct> <chr>                    <dbl>              <dbl>        <dbl>
 1 09001    CT    Fairfield Cou~            82.6               9.66         89.4
 2 09003    CT    Hartford Coun~            80.3              10.2          85.5
 3 09005    CT    Litchfield Co~            80.7               9.85         90.4
 4 09007    CT    Middlesex Cou~            81.1               9.61         94.6
 5 09009    CT    New Haven Cou~            80.0              11.1          83.4
 6 09011    CT    New London Co~            79.9              10.9          89.0
 7 09013    CT    Tolland County            81.8              10.0          92.3
 8 09015    CT    Windham County            78.8              11.4          84.8
 9 10001    DE    Kent County               77.8              11.7          90.1
10 10003    DE    New Castle Co~            78.7              11.0          87.7
# ... with 21 more rows, and 4 more variables: unemployment <dbl>,
#   food_insecurity <dbl>, unemp_cat <fct>, hsgrad_cat <fct>
…
