The Effects of College Education and Environmental Factors on Income Inequality
…
some_college was originally variable v069_rawvalue, and is listed under the Social and Economic Factors subcategory under Health Factors at County Health Rankings. It is a proportion that we multiplied by 100 to convert it to a percentage, and it describes the proportion of adults per county that are between 25-44 years old and possess some post-secondary education. The higher the number, the greater the proportion of people there are in the 25-44 year old age group in the specified county that possess some level of post-secondary education. It is based on data from the American Community Survey’s 5-year estimates from 2015-19.

homeownership was originally variable v153_rawvalue, and is listed under the Physical Environment subcategory under Health Factors at County Health Rankings. It is a proportion that we multiplied by 100 to convert it to a percentage, and it describes the proportion of housing units that are occupied in the given county. The higher the proportion, the greater the number of occupied housing units in the associated county, and it is based on the data from the American Community Survey’s 5-year estimates from 2015-19.

severe_housing_cost_burden was originally v154_rawvalue, and is also listed under the Physical Environment subcategory under Health Factors at County Health Rankings. It is a proportion that we multiplied by 100 to convert it to a percentage, and it describes the proportion of households that spend 50% or more of their household income on housing. The higher the proportion, the greater the proportion of the associated county’s population pays 50% or more of their household income on housing costs. It is based on the data from the American Community Survey’s 5-year estimates from 2015-19, and this variable was selected to be the binary categorical variable using the median value(s) as the cut point for the creation of the binary categorical.

broadband_access was originally variable v166_rawvalue, and is also listed under the Physical Environment subcategory under Health Factors at County Health Rankings. It is a proportion that we multiplied by 100 to convert it to a percentage, and it describes the proportion of households with broadband internet connection in the associated county. The higher the value, the greater the proportion of the associated county’s population has broadband internet access from their own households. It is based on the data from the American Community Survey’s 5-year estimates from 2015-19, and this variable was selected to be the multi-categorical variable for this project. It was selected to have five different categories, which were created from four cut points that produce five mutually exclusive and collectively exhaustive categories from the variable’s data.

We selected the some_college, homeownership, severe_housing_cost_burden, and broadband_access variables to be our analysis variables because they fit within our focus that we determined when creating our title/focus for our project, and while it may be beyond the scope of the project itself, there could be disparities between these variables’ relationships with income inequality based on the region of the United States, and we thought this may make an interesting meta-analysis of this project down the line to analyze the results of this project in this manner.

Proposal Requirement 3 - Print the Tibble

chr_2021

# A tibble: 397 x 11
   fipscode state county             income_inequali~ some_college homeownership
   <chr>    <fct> <chr>                         <dbl>        <dbl>         <dbl>
 1 06001    CA    Alameda County                 5.17         76.1          53.5
 2 06003    CA    Alpine County                  4.23         51.9          84  
 3 06005    CA    Amador County                  4.40         62.3          76.5
 4 06007    CA    Butte County                   5.43         68.5          59.0
 5 06009    CA    Calaveras County               4.19         56.3          77.8
 6 06011    CA    Colusa County                  4.33         51.0          61.0
 7 06013    CA    Contra Costa Coun~             4.75         71.9          65.9
 8 06015    CA    Del Norte County               5.04         42.1          63.1
 9 06017    CA    El Dorado County               4.79         69.5          75.7
10 06019    CA    Fresno County                  5.10         55.6          53.3
# ... with 387 more rows, and 5 more variables:
#   severe_housing_cost_burden <dbl>, broadband_access <dbl>,
#   severe_housing_cost_burden_binary_cat <fct>, broadband_access_cat <fct>,
#   severe_housing_cost_burden_cat <fct>
…
